…
    ## also installing the dependencies 'farver', 'labeling', 'RColorBrewer', 'viridisLite', 'gtable', 'isoband', 'S7', 'scales'

``` r
# load packages
library(dplyr)
library(ggplot2)

# load example data
data <- read.delim("https://www.kuleuven.be/samenwerking/real/real-book/viechtbauer2022_data_esmda_example")

dplyr::tibble(data)
```

    ## # A tibble: 19,680 × 27
    ##    id      age sex    status    day  beep   obs beeptime resptime resphour
    ##    <chr> <int> <chr>  <chr>   <int> <int> <int>    <int>    <int>    <dbl>
    ##  1 c100     30 female control     1     1     1      477      480      8  
    ##  2 c100     30 female control     1     2     2      585       NA     NA  
    ##  3 c100     30 female control     1     3     3      718      721     12.0
    ##  4 c100     30 female control     1     4     4      756      759     12.6
    ##  5 c100     30 female control     1     5     5      874      876     14.6
    ##  6 c100     30 female control     1     6     6      982      988     16.5
    ##  7 c100     30 female control     1     7     7     1079     1082     18.0
    ##  8 c100     30 female control     1     8     8     1133     1138     19.0
    ##  9 c100     30 female control     1     9     9     1215     1219     20.3
    ## 10 c100     30 female control     1    10    10     1301     1304     21.7
    ## # ℹ 19,670 more rows
    ## # ℹ 17 more variables: tothours <dbl>, mood_cheerf <int>, mood_relaxed <int>,
    ## #   mood_satisfi <int>, mood_irritat <int>, mood_anxious <int>,
    ## #   mood_down <int>, mood_guilty <int>, mood_insecur <int>, mood_lonely <int>,
    ## #   eventpl <int>, soc_alone <int>, soc_pleasant <int>, act_else <int>,
    ## #   use_coffee <int>, use_alcohol <int>, location <chr>
…
    ## [1] 19680

Missing values in design variables?

``` r
vars <- c("age", "sex")

data %>%
  group_by(id) %>%
  summarise(across(all_of(vars), n_distinct)) %>%
  mutate(across(all_of(vars), ~ .x == 1))
```

    ## # A tibble: 328 × 3
    ##    id    age   sex  
    ##    <chr> <lgl> <lgl>
    ##  1 c100  TRUE  TRUE 
    ##  2 c101  TRUE  TRUE 
    ##  3 c102  TRUE  TRUE 
    ##  4 c103  TRUE  TRUE 
    ##  5 c104  TRUE  TRUE 
    ##  6 c105  TRUE  TRUE 
    ##  7 c106  TRUE  TRUE 
    ##  8 c107  TRUE  TRUE 
    ##  9 c108  TRUE  TRUE 
    ## 10 c109  TRUE  TRUE 
    ## # ℹ 318 more rows
…
``` r
# positive affect
data$pa_b <- ave(data$pa, data$id, FUN = mean) # person-mean (between)
data$pa_w <- data$pa - data$pa_b # person-mean centered (within)

# negative affect
data$na_b <- ave(data$na, data$id, FUN = mean) # person-mean (between)
data$na_w <- data$na - data$na_b # person-mean centered (within)


tibble(data[,c("id","pa","pa_b","pa_w")])
```

    ## # A tibble: 19,680 × 4
    ##    id       pa  pa_b  pa_w
    ##    <chr> <dbl> <dbl> <dbl>
    ##  1 c100   4.67    NA    NA
    ##  2 c100  NA       NA    NA
    ##  3 c100   5.33    NA    NA
    ##  4 c100   4       NA    NA
    ##  5 c100   4.33    NA    NA
    ##  6 c100   5       NA    NA
    ##  7 c100   4       NA    NA
    ##  8 c100   5.33    NA    NA
    ##  9 c100   5       NA    NA
    ## 10 c100   4.33    NA    NA
    ## # ℹ 19,670 more rows
…
