…
``` r
# separate variables into within and between parts

# positive affect
data$pa_b <- ave(data$pa, data$id, FUN=function(x)mean(x, na.rm = TRUE)) # person-mean (between)
data$pa_w <- data$pa - data$pa_b # person-mean centered (within)

# negative affect
data$na_b <- ave(data$na, data$id, FUN=function(x)mean(x, na.rm = TRUE)) # person-mean (between)
data$na_w <- data$na - data$na_b # person-mean centered (within)

tibble(data[,c("id","pa","pa_b","pa_w")])
```

    ## # A tibble: 19,680 × 4
    ##    id       pa  pa_b   pa_w
    ##    <chr> <dbl> <dbl>  <dbl>
    ##  1 c100   4.67  5.12 -0.452
    ##  2 c100  NA     5.12 NA    
    ##  3 c100   5.33  5.12  0.215
    ##  4 c100   4     5.12 -1.12 
    ##  5 c100   4.33  5.12 -0.785
    ##  6 c100   5     5.12 -0.119
    ##  7 c100   4     5.12 -1.12 
    ##  8 c100   5.33  5.12  0.215
    ##  9 c100   5     5.12 -0.119
    ## 10 c100   4.33  5.12 -0.785
    ## # ℹ 19,670 more rows
…
