…
    ## 1.6 GiB
    ## Warning in asMethod(object): sparse->dense coercion: allocating vector of size
    ## 1.6 GiB
    ## Warning in asMethod(object): sparse->dense coercion: allocating vector of size
    ## 1.6 GiB
    ## Warning in asMethod(object): sparse->dense coercion: allocating vector of size
    ## 1.6 GiB
    ## Warning in asMethod(object): sparse->dense coercion: allocating vector of size
    ## 1.6 GiB
    ## Warning in asMethod(object): sparse->dense coercion: allocating vector of size
    ## 1.6 GiB
    ## Warning in asMethod(object): sparse->dense coercion: allocating vector of size
    ## 1.6 GiB

    ## # A tibble: 328 × 6
    ##    id        cooksd    mdffits covtrace covratio leverage.overall
    ##    <fct>      <dbl>      <dbl>    <dbl>    <dbl>            <dbl>
    ##  1 c100  0.00105    0.00105     0.00306     1.00           0.0217
    ##  2 c101  0.0000624  0.0000623   0.00307     1.00           0.0204
    ##  3 c102  0.000461   0.000459    0.00308     1.00           0.0166
    ##  4 c103  0.0152     0.0152      0.00307     1.00           0.0182
    ##  5 c104  0.0117     0.0116      0.00307     1.00           0.0188
    ##  6 c105  0.00835    0.00832     0.00306     1.00           0.0222
    ##  7 c106  0.00703    0.00701     0.00308     1.00           0.0172
    ##  8 c107  0.00000613 0.00000611  0.00306     1.00           0.0217
    ##  9 c108  0.00650    0.00648     0.00307     1.00           0.0182
    ## 10 c109  0.00495    0.00493     0.00304     1.00           0.0277
    ## # ℹ 318 more rows
…
